…
```R
words <- sotu %>%
  mutate(text = str_remove_all(text, "&amp;|&lt;|&gt;"),
         text = str_remove_all(text, "\\s?(f|ht)(tp)(s?)(://)([^\\.]*)[\\.|/](\\S*)"),
         text = str_remove_all(text, "[^\x01-\x7F]")) %>% 
  unnest_tokens(word, text, token = "tweets") %>%
  filter(!word %in% stop_words$word,
         !word %in% str_remove_all(stop_words$word, "'"),
         str_detect(word, "[a-z]"),
         !str_detect(word, "^#"),         
         !str_detect(word, "@\\S+")) %>%
  count(word, sort = TRUE)
  
# # A tibble: 4,109 × 2
# word         n
# <chr>    <int>
# 1 american  4082
# 2 buy       3800
# 3 biden     2837
# 4 america   2779
# 5 oil       1155
# 6 joe       1004
# 7 covid      673
# 8 china      591
# 9 energy     567
# 10 police     565
# # … with 4,099 more rows
```
…
